{
  "version": "15.0.7",
  "vulnerabilities": [
    {
      "id": ":SKIP:",
      "category": "sast",
      "name": "Improper check for unusual or exceptional conditions",
      "description": "The application was found using `assert` in non-test code. Usually reserved for debug and test\ncode, the `assert`\nfunction is commonly used to test conditions before continuing execution. However, enclosed\ncode will be removed\nwhen compiling Python code to optimized byte code. Depending on the assertion and subsequent\nlogic, this could\nlead to undefined behavior of the application or application crashes.\n\nTo remediate this issue, remove the `assert` calls. If necessary, replace them with either `if`\nconditions or\n`try/except` blocks.\n\nExample using `try/except` instead of `assert`:\n```\n# Below try/except is equal to the assert statement of:\n# assert user.is_authenticated(), \"user must be authenticated\"\ntry:\n    if not user.is_authenticated():\n        raise AuthError(\"user must be authenticated\")\nexcept AuthError as e:\n    # Handle error\n    # ...\n    # Return, do not continue processing\n    return\n```\n",
      "cve": "semgrep_id:bandit.B101:7:7",
      "severity": "Info",
      "scanner": {
        "id": "semgrep",
        "name": "Semgrep"
      },
      "location": {
        "file": "tests/test_simple.py",
        "start_line": 7
      },
      "identifiers": [
        {
          "type": "semgrep_id",
          "name": "bandit.B101",
          "value": "bandit.B101",
          "url": "https://semgrep.dev/r/gitlab.bandit.B101"
        },
        {
          "type": "cwe",
          "name": "CWE-754",
          "value": "754",
          "url": "https://cwe.mitre.org/data/definitions/754.html"
        },
        {
          "type": "owasp",
          "name": "A05:2021 - Security Misconfiguration",
          "value": "A05:2021"
        },
        {
          "type": "owasp",
          "name": "A6:2017 - Security Misconfiguration",
          "value": "A6:2017"
        },
        {
          "type": "bandit_test_id",
          "name": "Bandit Test ID B101",
          "value": "B101"
        }
      ],
      "tracking": {
        "type": "source",
        "items": [
          {
            "file": "tests/test_simple.py",
            "line_start": 7,
            "line_end": 7,
            "signatures": [
              {
                "algorithm": "scope_offset",
                "value": "tests/test_simple.py|test_success[0]:1"
              }
            ]
          }
        ]
      }
    }
  ],
  "dependency_files": [],
  "scan": {
    "analyzer": {
      "id": "semgrep",
      "name": "Semgrep",
      "url": "https://gitlab.com/gitlab-org/security-products/analyzers/semgrep",
      "vendor": {
        "name": "GitLab"
      },
      "version": ":SKIP:"
    },
    "scanner": {
      "id": "semgrep",
      "name": "Semgrep",
      "url": "https://github.com/returntocorp/semgrep",
      "vendor": {
        "name": "GitLab"
      },
      "version": ":SKIP:"
    },
    "type": "sast",
    "start_time": ":SKIP:",
    "end_time": ":SKIP:",
    "status": "success"
  }
}
